{
    "Plot_HT500_nMediumDeepJetB3+_nJet4+___Electron2_eta": {
        "Type": "PlotConfig",
        "Title": "DefaultPlotTitle",
        "Xaxis": null,
        "Yaxis": null,
        "Rebin": 5,
        "Files": "2018___Control___3pBnJet4p.root",
        "Projection": null,
        "Unblind": false
    },
    "Canvas_nMediumDeepJetB3p_Electron2_eta": {
        "Type": "CanvasConfig",
        "Title": "Subleading Electron #eta (3+ DeepJet b tags)",
        "Margins": [
            0.1,
            0.1,
            0.1,
            0.1
        ],
        "Coordinates": [],
        "Plots": [
            "Plot_HT500_nMediumDeepJetB3+_nJet4+___Electron2_eta"
        ],
        "Labels": [
            "ee Control/Signal Regions"
        ],
        "Legend": "DefaultLegend",
        "Rebin": null,
        "XPixels": 1200,
        "YPixels": 1000,
        "XAxisTitle": "Subleading Electron #eta",
        "YAxisTitle": "Events / bin",
        "Projection": null,
        "DoRatio": true,
        "doLogY": false,
        "DoMountainrange": true
    },
    "Plot_HT500_nMediumDeepJetB3+_nJet4+___Electron1_eta": {
        "Type": "PlotConfig",
        "Title": "DefaultPlotTitle",
        "Xaxis": null,
        "Yaxis": null,
        "Rebin": 5,
        "Files": "2018___Control___3pBnJet4p.root",
        "Projection": null,
        "Unblind": false
    },
    "Canvas_nMediumDeepJetB3p_Electron1_eta": {
        "Type": "CanvasConfig",
        "Title": "Leading Electron #eta (3+ DeepJet b tags)",
        "Margins": [
            0.1,
            0.1,
            0.1,
            0.1
        ],
        "Coordinates": [],
        "Plots": [
            "Plot_HT500_nMediumDeepJetB3+_nJet4+___Electron1_eta"
        ],
        "Labels": [
            "ee Control/Signal Regions"
        ],
        "Legend": "DefaultLegend",
        "Rebin": null,
        "XPixels": 1200,
        "YPixels": 1000,
        "XAxisTitle": "Leading Electron #eta",
        "YAxisTitle": "Events / bin",
        "Projection": null,
        "DoRatio": true,
        "doLogY": false,
        "DoMountainrange": true
    },
    "Plot_HT500_nMediumDeepJetB3+_nJet4+___Electron_pfRelIso03_chg": {
        "Type": "PlotConfig",
        "Title": "DefaultPlotTitle",
        "Xaxis": null,
        "Yaxis": null,
        "Rebin": 5,
        "Files": "2018___Control___3pBnJet4p.root",
        "Projection": null,
        "Unblind": false
    },
    "Canvas_nMediumDeepJetB3p_Electron_pfRelIso03_chg": {
        "Type": "CanvasConfig",
        "Title": "Electron pfRelIso03_chg (3+ DeepJet b tags)",
        "Margins": [
            0.1,
            0.1,
            0.1,
            0.1
        ],
        "Coordinates": [],
        "Plots": [
            "Plot_HT500_nMediumDeepJetB3+_nJet4+___Electron_pfRelIso03_chg"
        ],
        "Labels": [
            "ee Control/Signal Regions"
        ],
        "Legend": "DefaultLegend",
        "Rebin": null,
        "XPixels": 1200,
        "YPixels": 1000,
        "XAxisTitle": "Electron pfRelIso03_chg",
        "YAxisTitle": "Events / bin",
        "Projection": null,
        "DoRatio": true,
        "doLogY": false,
        "DoMountainrange": true
    },
    "Plot_HT500_nMediumDeepJetB3+_nJet4+___Electron_pfRelIso03_all": {
        "Type": "PlotConfig",
        "Title": "DefaultPlotTitle",
        "Xaxis": null,
        "Yaxis": null,
        "Rebin": 5,
        "Files": "2018___Control___3pBnJet4p.root",
        "Projection": null,
        "Unblind": false
    },
    "Canvas_nMediumDeepJetB3p_Electron_pfRelIso03_all": {
        "Type": "CanvasConfig",
        "Title": "Electron pfRelIso03_all (3+ DeepJet b tags)",
        "Margins": [
            0.1,
            0.1,
            0.1,
            0.1
        ],
        "Coordinates": [],
        "Plots": [
            "Plot_HT500_nMediumDeepJetB3+_nJet4+___Electron_pfRelIso03_all"
        ],
        "Labels": [
            "ee Control/Signal Regions"
        ],
        "Legend": "DefaultLegend",
        "Rebin": null,
        "XPixels": 1200,
        "YPixels": 1000,
        "XAxisTitle": "Electron pfRelIso03_all",
        "YAxisTitle": "Events / bin",
        "Projection": null,
        "DoRatio": true,
        "doLogY": false,
        "DoMountainrange": true
    },
    "Plot_HT500_nMediumDeepJetB3+_nJet4+___Jet1_pt": {
        "Type": "PlotConfig",
        "Title": "DefaultPlotTitle",
        "Xaxis": null,
        "Yaxis": null,
        "Rebin": 5,
        "Files": "2018___Control___3pBnJet4p.root",
        "Projection": null,
        "Unblind": false
    },
    "Canvas_nMediumDeepJetB3p_Jet1_pt": {
        "Type": "CanvasConfig",
        "Title": "Leading Jet pt (3+ DeepJet b tags)",
        "Margins": [
            0.1,
            0.1,
            0.1,
            0.1
        ],
        "Coordinates": [],
        "Plots": [
            "Plot_HT500_nMediumDeepJetB3+_nJet4+___Jet1_pt"
        ],
        "Labels": [
            "ee Control/Signal Regions"
        ],
        "Legend": "DefaultLegend",
        "Rebin": null,
        "XPixels": 1200,
        "YPixels": 1000,
        "XAxisTitle": "Leading Jet p_{T} (GeV)",
        "YAxisTitle": "Events / bin",
        "Projection": null,
        "DoRatio": true,
        "doLogY": false,
        "DoMountainrange": true
    },
    "Plot_HT500_nMediumDeepJetB3+_nJet4+___Jet1_eta": {
        "Type": "PlotConfig",
        "Title": "DefaultPlotTitle",
        "Xaxis": null,
        "Yaxis": null,
        "Rebin": 5,
        "Files": "2018___Control___3pBnJet4p.root",
        "Projection": null,
        "Unblind": false
    },
    "Canvas_nMediumDeepJetB3p_Jet1_eta": {
        "Type": "CanvasConfig",
        "Title": "Leading Jet #eta (3+ DeepJet b tags)",
        "Margins": [
            0.1,
            0.1,
            0.1,
            0.1
        ],
        "Coordinates": [],
        "Plots": [
            "Plot_HT500_nMediumDeepJetB3+_nJet4+___Jet1_eta"
        ],
        "Labels": [
            "ee Control/Signal Regions"
        ],
        "Legend": "DefaultLegend",
        "Rebin": null,
        "XPixels": 1200,
        "YPixels": 1000,
        "XAxisTitle": "Leading Jet #eta",
        "YAxisTitle": "Events / bin",
        "Projection": null,
        "DoRatio": true,
        "doLogY": false,
        "DoMountainrange": true
    },
    "Plot_HT500_nMediumDeepJetB3+_nJet4+___Jet1_DeepJetB": {
        "Type": "PlotConfig",
        "Title": "DefaultPlotTitle",
        "Xaxis": null,
        "Yaxis": null,
        "Rebin": 5,
        "Files": "2018___Control___3pBnJet4p.root",
        "Projection": null,
        "Unblind": false
    },
    "Canvas_nMediumDeepJetB3p_Jet1_DeepJetB": {
        "Type": "CanvasConfig",
        "Title": "Leading p_{T} Jet DeepJet Disriminant (3+ DeepJet b tags)",
        "Margins": [
            0.1,
            0.1,
            0.1,
            0.1
        ],
        "Coordinates": [],
        "Plots": [
            "Plot_HT500_nMediumDeepJetB3+_nJet4+___Jet1_DeepJetB"
        ],
        "Labels": [
            "ee Control/Signal Regions"
        ],
        "Legend": "DefaultLegend",
        "Rebin": null,
        "XPixels": 1200,
        "YPixels": 1000,
        "XAxisTitle": "Leading p_{T} Jet DeepJet Disriminant",
        "YAxisTitle": "Events / bin",
        "Projection": null,
        "DoRatio": true,
        "doLogY": false,
        "DoMountainrange": true
    },
    "Plot_HT500_nMediumDeepJetB3+_nJet4+___Jet1_DeepJetB_sortedjet": {
        "Type": "PlotConfig",
        "Title": "DefaultPlotTitle",
        "Xaxis": null,
        "Yaxis": null,
        "Rebin": 5,
        "Files": "2018___Control___3pBnJet4p.root",
        "Projection": null,
        "Unblind": false
    },
    "Canvas_nMediumDeepJetB3p_Jet1_DeepJetB_sortedjet": {
        "Type": "CanvasConfig",
        "Title": "Leading b tagged Jet discriminant (3+ DeepJet b tags)",
        "Margins": [
            0.1,
            0.1,
            0.1,
            0.1
        ],
        "Coordinates": [],
        "Plots": [
            "Plot_HT500_nMediumDeepJetB3+_nJet4+___Jet1_DeepJetB_sortedjet"
        ],
        "Labels": [
            "ee Control/Signal Regions"
        ],
        "Legend": "DefaultLegend",
        "Rebin": null,
        "XPixels": 1200,
        "YPixels": 1000,
        "XAxisTitle": "Leading Jet DeepJet Discriminator",
        "YAxisTitle": "Events / bin",
        "Projection": null,
        "DoRatio": true,
        "doLogY": false,
        "DoMountainrange": true
    },
    "Plot_HT500_nMediumDeepJetB3+_nJet4+___Jet2_pt": {
        "Type": "PlotConfig",
        "Title": "DefaultPlotTitle",
        "Xaxis": null,
        "Yaxis": null,
        "Rebin": 5,
        "Files": "2018___Control___3pBnJet4p.root",
        "Projection": null,
        "Unblind": false
    },
    "Canvas_nMediumDeepJetB3p_Jet2_pt": {
        "Type": "CanvasConfig",
        "Title": "Subleading Jet pt (3+ DeepJet b tags)",
        "Margins": [
            0.1,
            0.1,
            0.1,
            0.1
        ],
        "Coordinates": [],
        "Plots": [
            "Plot_HT500_nMediumDeepJetB3+_nJet4+___Jet2_pt"
        ],
        "Labels": [
            "ee Control/Signal Regions"
        ],
        "Legend": "DefaultLegend",
        "Rebin": null,
        "XPixels": 1200,
        "YPixels": 1000,
        "XAxisTitle": "Subleading Jet p_{T} (GeV)",
        "YAxisTitle": "Events / bin",
        "Projection": null,
        "DoRatio": true,
        "doLogY": false,
        "DoMountainrange": true
    },
    "Plot_HT500_nMediumDeepJetB3+_nJet4+___Jet2_eta": {
        "Type": "PlotConfig",
        "Title": "DefaultPlotTitle",
        "Xaxis": null,
        "Yaxis": null,
        "Rebin": 5,
        "Files": "2018___Control___3pBnJet4p.root",
        "Projection": null,
        "Unblind": false
    },
    "Canvas_nMediumDeepJetB3p_Jet2_eta": {
        "Type": "CanvasConfig",
        "Title": "Subleading Jet #eta (3+ DeepJet b tags)",
        "Margins": [
            0.1,
            0.1,
            0.1,
            0.1
        ],
        "Coordinates": [],
        "Plots": [
            "Plot_HT500_nMediumDeepJetB3+_nJet4+___Jet2_eta"
        ],
        "Labels": [
            "ee Control/Signal Regions"
        ],
        "Legend": "DefaultLegend",
        "Rebin": null,
        "XPixels": 1200,
        "YPixels": 1000,
        "XAxisTitle": "Subleading Jet #eta",
        "YAxisTitle": "Events / bin",
        "Projection": null,
        "DoRatio": true,
        "doLogY": false,
        "DoMountainrange": true
    },
    "Plot_HT500_nMediumDeepJetB3+_nJet4+___Jet2_DeepJetB": {
        "Type": "PlotConfig",
        "Title": "DefaultPlotTitle",
        "Xaxis": null,
        "Yaxis": null,
        "Rebin": 5,
        "Files": "2018___Control___3pBnJet4p.root",
        "Projection": null,
        "Unblind": false
    },
    "Canvas_nMediumDeepJetB3p_Jet2_DeepJetB": {
        "Type": "CanvasConfig",
        "Title": "Subleading p_{T} Jet DeepJet Disriminant (3+ DeepJet b tags)",
        "Margins": [
            0.1,
            0.1,
            0.1,
            0.1
        ],
        "Coordinates": [],
        "Plots": [
            "Plot_HT500_nMediumDeepJetB3+_nJet4+___Jet2_DeepJetB"
        ],
        "Labels": [
            "ee Control/Signal Regions"
        ],
        "Legend": "DefaultLegend",
        "Rebin": null,
        "XPixels": 1200,
        "YPixels": 1000,
        "XAxisTitle": "Subleading p_{T} Jet DeepJet Disriminant",
        "YAxisTitle": "Events / bin",
        "Projection": null,
        "DoRatio": true,
        "doLogY": false,
        "DoMountainrange": true
    },
    "Plot_HT500_nMediumDeepJetB3+_nJet4+___Jet2_DeepJetB_sortedjet": {
        "Type": "PlotConfig",
        "Title": "DefaultPlotTitle",
        "Xaxis": null,
        "Yaxis": null,
        "Rebin": 5,
        "Files": "2018___Control___3pBnJet4p.root",
        "Projection": null,
        "Unblind": false
    },
    "Canvas_nMediumDeepJetB3p_Jet2_DeepJetB_sortedjet": {
        "Type": "CanvasConfig",
        "Title": "Subleading b tagged Jet discriminant (3+ DeepJet b tags)",
        "Margins": [
            0.1,
            0.1,
            0.1,
            0.1
        ],
        "Coordinates": [],
        "Plots": [
            "Plot_HT500_nMediumDeepJetB3+_nJet4+___Jet2_DeepJetB_sortedjet"
        ],
        "Labels": [
            "ee Control/Signal Regions"
        ],
        "Legend": "DefaultLegend",
        "Rebin": null,
        "XPixels": 1200,
        "YPixels": 1000,
        "XAxisTitle": "Subleading Jet DeepJet Discriminator",
        "YAxisTitle": "Events / bin",
        "Projection": null,
        "DoRatio": true,
        "doLogY": false,
        "DoMountainrange": true
    },
    "Plot_HT500_nMediumDeepJetB3+_nJet4+___Jet3_pt": {
        "Type": "PlotConfig",
        "Title": "DefaultPlotTitle",
        "Xaxis": null,
        "Yaxis": null,
        "Rebin": 5,
        "Files": "2018___Control___3pBnJet4p.root",
        "Projection": null,
        "Unblind": false
    },
    "Canvas_nMediumDeepJetB3p_Jet3_pt": {
        "Type": "CanvasConfig",
        "Title": "3rd Jet pt (3+ DeepJet b tags)",
        "Margins": [
            0.1,
            0.1,
            0.1,
            0.1
        ],
        "Coordinates": [],
        "Plots": [
            "Plot_HT500_nMediumDeepJetB3+_nJet4+___Jet3_pt"
        ],
        "Labels": [
            "ee Control/Signal Regions"
        ],
        "Legend": "DefaultLegend",
        "Rebin": null,
        "XPixels": 1200,
        "YPixels": 1000,
        "XAxisTitle": "3rd Jet p_{T} (GeV)",
        "YAxisTitle": "Events / bin",
        "Projection": null,
        "DoRatio": true,
        "doLogY": false,
        "DoMountainrange": true
    },
    "Plot_HT500_nMediumDeepJetB3+_nJet4+___Jet3_eta": {
        "Type": "PlotConfig",
        "Title": "DefaultPlotTitle",
        "Xaxis": null,
        "Yaxis": null,
        "Rebin": 5,
        "Files": "2018___Control___3pBnJet4p.root",
        "Projection": null,
        "Unblind": false
    },
    "Canvas_nMediumDeepJetB3p_Jet3_eta": {
        "Type": "CanvasConfig",
        "Title": "3rd Jet #eta (3+ DeepJet b tags)",
        "Margins": [
            0.1,
            0.1,
            0.1,
            0.1
        ],
        "Coordinates": [],
        "Plots": [
            "Plot_HT500_nMediumDeepJetB3+_nJet4+___Jet3_eta"
        ],
        "Labels": [
            "ee Control/Signal Regions"
        ],
        "Legend": "DefaultLegend",
        "Rebin": null,
        "XPixels": 1200,
        "YPixels": 1000,
        "XAxisTitle": "3rd Jet #eta",
        "YAxisTitle": "Events / bin",
        "Projection": null,
        "DoRatio": true,
        "doLogY": false,
        "DoMountainrange": true
    },
    "Plot_HT500_nMediumDeepJetB3+_nJet4+___Jet3_DeepJetB": {
        "Type": "PlotConfig",
        "Title": "DefaultPlotTitle",
        "Xaxis": null,
        "Yaxis": null,
        "Rebin": 5,
        "Files": "2018___Control___3pBnJet4p.root",
        "Projection": null,
        "Unblind": false
    },
    "Canvas_nMediumDeepJetB3p_Jet3_DeepJetB": {
        "Type": "CanvasConfig",
        "Title": "3rd p_{T} Jet DeepJet Disriminant (3+ DeepJet b tags)",
        "Margins": [
            0.1,
            0.1,
            0.1,
            0.1
        ],
        "Coordinates": [],
        "Plots": [
            "Plot_HT500_nMediumDeepJetB3+_nJet4+___Jet3_DeepJetB"
        ],
        "Labels": [
            "ee Control/Signal Regions"
        ],
        "Legend": "DefaultLegend",
        "Rebin": null,
        "XPixels": 1200,
        "YPixels": 1000,
        "XAxisTitle": "3rd p_{T} Jet DeepJet Disriminant",
        "YAxisTitle": "Events / bin",
        "Projection": null,
        "DoRatio": true,
        "doLogY": false,
        "DoMountainrange": true
    },
    "Plot_HT500_nMediumDeepJetB3+_nJet4+___Jet3_DeepJetB_sortedjet": {
        "Type": "PlotConfig",
        "Title": "DefaultPlotTitle",
        "Xaxis": null,
        "Yaxis": null,
        "Rebin": 5,
        "Files": "2018___Control___3pBnJet4p.root",
        "Projection": null,
        "Unblind": false
    },
    "Canvas_nMediumDeepJetB3p_Jet3_DeepJetB_sortedjet": {
        "Type": "CanvasConfig",
        "Title": "3rd b tagged Jet discriminant (3+ DeepJet b tags)",
        "Margins": [
            0.1,
            0.1,
            0.1,
            0.1
        ],
        "Coordinates": [],
        "Plots": [
            "Plot_HT500_nMediumDeepJetB3+_nJet4+___Jet3_DeepJetB_sortedjet"
        ],
        "Labels": [
            "ee Control/Signal Regions"
        ],
        "Legend": "DefaultLegend",
        "Rebin": null,
        "XPixels": 1200,
        "YPixels": 1000,
        "XAxisTitle": "3rd Jet DeepJet Discriminator",
        "YAxisTitle": "Events / bin",
        "Projection": null,
        "DoRatio": true,
        "doLogY": false,
        "DoMountainrange": true
    },
    "Plot_HT500_nMediumDeepJetB3+_nJet4+___Jet4_pt": {
        "Type": "PlotConfig",
        "Title": "DefaultPlotTitle",
        "Xaxis": null,
        "Yaxis": null,
        "Rebin": 5,
        "Files": "2018___Control___3pBnJet4p.root",
        "Projection": null,
        "Unblind": false
    },
    "Canvas_nMediumDeepJetB3p_Jet4_pt": {
        "Type": "CanvasConfig",
        "Title": "4th Jet pt (3+ DeepJet b tags)",
        "Margins": [
            0.1,
            0.1,
            0.1,
            0.1
        ],
        "Coordinates": [],
        "Plots": [
            "Plot_HT500_nMediumDeepJetB3+_nJet4+___Jet4_pt"
        ],
        "Labels": [
            "ee Control/Signal Regions"
        ],
        "Legend": "DefaultLegend",
        "Rebin": null,
        "XPixels": 1200,
        "YPixels": 1000,
        "XAxisTitle": "4th Jet p_{T} (GeV)",
        "YAxisTitle": "Events / bin",
        "Projection": null,
        "DoRatio": true,
        "doLogY": false,
        "DoMountainrange": true
    },
    "Plot_HT500_nMediumDeepJetB3+_nJet4+___Jet4_eta": {
        "Type": "PlotConfig",
        "Title": "DefaultPlotTitle",
        "Xaxis": null,
        "Yaxis": null,
        "Rebin": 5,
        "Files": "2018___Control___3pBnJet4p.root",
        "Projection": null,
        "Unblind": false
    },
    "Canvas_nMediumDeepJetB3p_Jet4_eta": {
        "Type": "CanvasConfig",
        "Title": "4th Jet #eta (3+ DeepJet b tags)",
        "Margins": [
            0.1,
            0.1,
            0.1,
            0.1
        ],
        "Coordinates": [],
        "Plots": [
            "Plot_HT500_nMediumDeepJetB3+_nJet4+___Jet4_eta"
        ],
        "Labels": [
            "ee Control/Signal Regions"
        ],
        "Legend": "DefaultLegend",
        "Rebin": null,
        "XPixels": 1200,
        "YPixels": 1000,
        "XAxisTitle": "4th Jet #eta",
        "YAxisTitle": "Events / bin",
        "Projection": null,
        "DoRatio": true,
        "doLogY": false,
        "DoMountainrange": true
    },
    "Plot_HT500_nMediumDeepJetB3+_nJet4+___Jet4_DeepJetB": {
        "Type": "PlotConfig",
        "Title": "DefaultPlotTitle",
        "Xaxis": null,
        "Yaxis": null,
        "Rebin": 5,
        "Files": "2018___Control___3pBnJet4p.root",
        "Projection": null,
        "Unblind": false
    },
    "Canvas_nMediumDeepJetB3p_Jet4_DeepJetB": {
        "Type": "CanvasConfig",
        "Title": "4th p_{T} Jet DeepJet Disriminant (3+ DeepJet b tags)",
        "Margins": [
            0.1,
            0.1,
            0.1,
            0.1
        ],
        "Coordinates": [],
        "Plots": [
            "Plot_HT500_nMediumDeepJetB3+_nJet4+___Jet4_DeepJetB"
        ],
        "Labels": [
            "ee Control/Signal Regions"
        ],
        "Legend": "DefaultLegend",
        "Rebin": null,
        "XPixels": 1200,
        "YPixels": 1000,
        "XAxisTitle": "4th p_{T} Jet DeepJet Disriminant",
        "YAxisTitle": "Events / bin",
        "Projection": null,
        "DoRatio": true,
        "doLogY": false,
        "DoMountainrange": true
    },
    "Plot_HT500_nMediumDeepJetB3+_nJet4+___Jet4_DeepJetB_sortedjet": {
        "Type": "PlotConfig",
        "Title": "DefaultPlotTitle",
        "Xaxis": null,
        "Yaxis": null,
        "Rebin": 5,
        "Files": "2018___Control___3pBnJet4p.root",
        "Projection": null,
        "Unblind": false
    },
    "Canvas_nMediumDeepJetB3p_Jet4_DeepJetB_sortedjet": {
        "Type": "CanvasConfig",
        "Title": "4th b tagged Jet discriminant (3+ DeepJet b tags)",
        "Margins": [
            0.1,
            0.1,
            0.1,
            0.1
        ],
        "Coordinates": [],
        "Plots": [
            "Plot_HT500_nMediumDeepJetB3+_nJet4+___Jet4_DeepJetB_sortedjet"
        ],
        "Labels": [
            "ee Control/Signal Regions"
        ],
        "Legend": "DefaultLegend",
        "Rebin": null,
        "XPixels": 1200,
        "YPixels": 1000,
        "XAxisTitle": "4th Jet DeepJet Discriminator",
        "YAxisTitle": "Events / bin",
        "Projection": null,
        "DoRatio": true,
        "doLogY": false,
        "DoMountainrange": true
    },
    "Plot_HT500_nMediumDeepJetB3+_nJet4+___nJet": {
        "Type": "PlotConfig",
        "Title": "DefaultPlotTitle",
        "Xaxis": null,
        "Yaxis": null,
        "Rebin": null,
        "Files": "2018___Control___3pBnJet4p.root",
        "Projection": null,
        "Unblind": false
    },
    "Canvas_nMediumDeepJetB3p_nJet": {
        "Type": "CanvasConfig",
        "Title": "nJet (3+ DeepJet b tags)",
        "Margins": [
            0.1,
            0.1,
            0.1,
            0.1
        ],
        "Coordinates": [],
        "Plots": [
            "Plot_HT500_nMediumDeepJetB3+_nJet4+___nJet"
        ],
        "Labels": [
            "ee Control/Signal Regions"
        ],
        "Legend": "DefaultLegend",
        "Rebin": null,
        "XPixels": 1200,
        "YPixels": 1000,
        "XAxisTitle": "nJet",
        "YAxisTitle": "Events / bin",
        "Projection": null,
        "DoRatio": true,
        "doLogY": false,
        "DoMountainrange": true
    },
    "Plot_HT500_nMediumDeepJetB3+_nJet4+___nJet_MediumDeepJet": {
        "Type": "PlotConfig",
        "Title": "DefaultPlotTitle",
        "Xaxis": null,
        "Yaxis": null,
        "Rebin": null,
        "Files": "2018___Control___3pBnJet4p.root",
        "Projection": null,
        "Unblind": false
    },
    "Canvas_nMediumDeepJetB3p_nJet_MediumDeepJet": {
        "Type": "CanvasConfig",
        "Title": "Medium DeepJet b tagged Jets (3+ DeepJet b tags)",
        "Margins": [
            0.1,
            0.1,
            0.1,
            0.1
        ],
        "Coordinates": [],
        "Plots": [
            "Plot_HT500_nMediumDeepJetB3+_nJet4+___nJet_MediumDeepJet"
        ],
        "Labels": [
            "ee Control/Signal Regions"
        ],
        "Legend": "DefaultLegend",
        "Rebin": null,
        "XPixels": 1200,
        "YPixels": 1000,
        "XAxisTitle": "Medium b tagged jets",
        "YAxisTitle": "Events / bin",
        "Projection": null,
        "DoRatio": true,
        "doLogY": false,
        "DoMountainrange": true
    },
    "Plot_HT500_nMediumDeepJetB3+_nJet4+___MET_pt": {
        "Type": "PlotConfig",
        "Title": "DefaultPlotTitle",
        "Xaxis": null,
        "Yaxis": null,
        "Rebin": 5,
        "Files": "2018___Control___3pBnJet4p.root",
        "Projection": null,
        "Unblind": false
    },
    "Canvas_nMediumDeepJetB3p_MET_pt": {
        "Type": "CanvasConfig",
        "Title": "Missing Transverse Energy (3+ DeepJet b tags)",
        "Margins": [
            0.1,
            0.1,
            0.1,
            0.1
        ],
        "Coordinates": [],
        "Plots": [
            "Plot_HT500_nMediumDeepJetB3+_nJet4+___MET_pt"
        ],
        "Labels": [
            "ee Control/Signal Regions"
        ],
        "Legend": "DefaultLegend",
        "Rebin": null,
        "XPixels": 1200,
        "YPixels": 1000,
        "XAxisTitle": "p_{T}^{Miss} (GeV)",
        "YAxisTitle": "Events / bin",
        "Projection": null,
        "DoRatio": true,
        "doLogY": false,
        "DoMountainrange": true
    },
    "Plot_HT500_nMediumDeepJetB3+_nJet4+___MET_phi": {
        "Type": "PlotConfig",
        "Title": "DefaultPlotTitle",
        "Xaxis": null,
        "Yaxis": null,
        "Rebin": 5,
        "Files": "2018___Control___3pBnJet4p.root",
        "Projection": null,
        "Unblind": false
    },
    "Canvas_nMediumDeepJetB3p_MET_phi": {
        "Type": "CanvasConfig",
        "Title": "#phi_{MET} (3+ DeepJet b tags)",
        "Margins": [
            0.1,
            0.1,
            0.1,
            0.1
        ],
        "Coordinates": [],
        "Plots": [
            "Plot_HT500_nMediumDeepJetB3+_nJet4+___MET_phi"
        ],
        "Labels": [
            "ee Control/Signal Regions"
        ],
        "Legend": "DefaultLegend",
        "Rebin": null,
        "XPixels": 1200,
        "YPixels": 1000,
        "XAxisTitle": "#phi_{MET}",
        "YAxisTitle": "Events / bin",
        "Projection": null,
        "DoRatio": true,
        "doLogY": false,
        "DoMountainrange": true
    },
    "Plot_HT500_nMediumDeepJetB3+_nJet4+___Electron2_pt": {
        "Type": "PlotConfig",
        "Title": "DefaultPlotTitle",
        "Xaxis": null,
        "Yaxis": null,
        "Rebin": 5,
        "Files": "2018___Control___3pBnJet4p.root",
        "Projection": null,
        "Unblind": false
    },
    "Canvas_nMediumDeepJetB3p_Electron2_pt": {
        "Type": "CanvasConfig",
        "Title": "Subleading Electron p_{T} (3+ DeepJet b tags)",
        "Margins": [
            0.1,
            0.1,
            0.1,
            0.1
        ],
        "Coordinates": [],
        "Plots": [
            "Plot_HT500_nMediumDeepJetB3+_nJet4+___Electron2_pt"
        ],
        "Labels": [
            "ee Control/Signal Regions"
        ],
        "Legend": "DefaultLegend",
        "Rebin": null,
        "XPixels": 1200,
        "YPixels": 1000,
        "XAxisTitle": "p_{T} (GeV)",
        "YAxisTitle": "Events / bin",
        "Projection": null,
        "DoRatio": true,
        "doLogY": false,
        "DoMountainrange": true
    },
    "Plot_HT500_nMediumDeepJetB3+_nJet4+___Electron1_pt": {
        "Type": "PlotConfig",
        "Title": "DefaultPlotTitle",
        "Xaxis": null,
        "Yaxis": null,
        "Rebin": 5,
        "Files": "2018___Control___3pBnJet4p.root",
        "Projection": null,
        "Unblind": false
    },
    "Canvas_nMediumDeepJetB3p_Electron1_pt": {
        "Type": "CanvasConfig",
        "Title": "Leading Electron p_{T} (3+ DeepJet b tags)",
        "Margins": [
            0.1,
            0.1,
            0.1,
            0.1
        ],
        "Coordinates": [],
        "Plots": [
            "Plot_HT500_nMediumDeepJetB3+_nJet4+___Electron1_pt"
        ],
        "Labels": [
            "ee Control/Signal Regions"
        ],
        "Legend": "DefaultLegend",
        "Rebin": null,
        "XPixels": 1200,
        "YPixels": 1000,
        "XAxisTitle": "p_{T} (GeV)",
        "YAxisTitle": "Events / bin",
        "Projection": null,
        "DoRatio": true,
        "doLogY": false,
        "DoMountainrange": true
    },
    "Plot_HT500_nMediumDeepJetB3+_nJet4+___Electron_dz": {
        "Type": "PlotConfig",
        "Title": "DefaultPlotTitle",
        "Xaxis": null,
        "Yaxis": null,
        "Rebin": null,
        "Files": "2018___Control___3pBnJet4p.root",
	"SetRangeUser": [-0.03, 0.03],
        "Projection": null,
        "Unblind": false
    },
    "Canvas_nMediumDeepJetB3p_Electron_dz": {
        "Type": "CanvasConfig",
        "Title": "Electron dz (3+ DeepJet b tags)",
        "Margins": [
            0.1,
            0.1,
            0.1,
            0.1
        ],
        "Coordinates": [],
        "Plots": [
            "Plot_HT500_nMediumDeepJetB3+_nJet4+___Electron_dz"
        ],
        "Labels": [
            "ee Control/Signal Regions"
        ],
        "Legend": "DefaultLegend",
        "Rebin": null,
        "XPixels": 1200,
        "YPixels": 1000,
        "XAxisTitle": "Electron dz",
        "YAxisTitle": "Events / bin",
        "Projection": null,
        "DoRatio": true,
        "doLogY": false,
        "DoMountainrange": true
    },
    "Plot_HT500_nMediumDeepJetB3+_nJet4+___Electron_ip3d": {
        "Type": "PlotConfig",
        "Title": "DefaultPlotTitle",
        "Xaxis": null,
        "Yaxis": null,
        "Rebin": null,
        "Files": "2018___Control___3pBnJet4p.root",
	"SetRangeUser": [-0.005, 0.05],
        "Projection": null,
        "Unblind": false
    },
    "Canvas_nMediumDeepJetB3p_Electron_ip3d": {
        "Type": "CanvasConfig",
        "Title": "Electron ip3d (3+ DeepJet b tags)",
        "Margins": [
            0.1,
            0.1,
            0.1,
            0.1
        ],
        "Coordinates": [],
        "Plots": [
            "Plot_HT500_nMediumDeepJetB3+_nJet4+___Electron_ip3d"
        ],
        "Labels": [
            "ee Control/Signal Regions"
        ],
        "Legend": "DefaultLegend",
        "Rebin": null,
        "XPixels": 1200,
        "YPixels": 1000,
        "XAxisTitle": "ip3d",
        "YAxisTitle": "Events / bin",
        "Projection": null,
        "DoRatio": true,
        "doLogY": false,
        "DoMountainrange": true
    },
    "Plot_HT500_nMediumDeepJetB3+_nJet4+___MTofMETandEl": {
        "Type": "PlotConfig",
        "Title": "DefaultPlotTitle",
        "Xaxis": null,
        "Yaxis": null,
        "Rebin": 5,
        "Files": "2018___Control___3pBnJet4p.root",
        "Projection": null,
        "Unblind": false
    },
    "Canvas_nMediumDeepJetB3p_MTofMETandEl": {
        "Type": "CanvasConfig",
        "Title": "MT(MET,e) (3+ DeepJet b tags)",
        "Margins": [
            0.1,
            0.1,
            0.1,
            0.1
        ],
        "Coordinates": [],
        "Plots": [
            "Plot_HT500_nMediumDeepJetB3+_nJet4+___MTofMETandEl"
        ],
        "Labels": [
            "ee Control/Signal Regions"
        ],
        "Legend": "DefaultLegend",
        "Rebin": null,
        "XPixels": 1200,
        "YPixels": 1000,
        "XAxisTitle": "MT(MET,e) (GeV)",
        "YAxisTitle": "Events / bin",
        "Projection": null,
        "DoRatio": true,
        "doLogY": false,
        "DoMountainrange": true
    },
    "Plot_HT500_nMediumDeepJetB3+_nJet4+___HT": {
        "Type": "PlotConfig",
        "Title": "DefaultPlotTitle",
        "Xaxis": null,
        "Yaxis": null,
        "Rebin": 2,
        "Files": "2018___Control___3pBnJet4p.root",
        "Projection": null,
        "Unblind": false
    },
    "Canvas_nMediumDeepJetB3p_HT": {
        "Type": "CanvasConfig",
        "Title": "H_{T} (3+ DeepJet b tags)",
        "Margins": [
            0.1,
            0.1,
            0.1,
            0.1
        ],
        "Coordinates": [],
        "Plots": [
            "Plot_HT500_nMediumDeepJetB3+_nJet4+___HT"
        ],
        "Labels": [
            "ee Control/Signal Regions"
        ],
        "Legend": "DefaultLegend",
        "Rebin": null,
        "XPixels": 1200,
        "YPixels": 1000,
        "XAxisTitle": "H_{T} (GeV)",
        "YAxisTitle": "Events / bin",
        "Projection": null,
        "DoRatio": true,
        "doLogY": false,
        "DoMountainrange": true
    },
    "Plot_HT500_nMediumDeepJetB3+_nJet4+___H": {
        "Type": "PlotConfig",
        "Title": "DefaultPlotTitle",
        "Xaxis": null,
        "Yaxis": null,
        "Rebin": 5,
        "Files": "2018___Control___3pBnJet4p.root",
        "Projection": null,
        "Unblind": false
    },
    "Canvas_nMediumDeepJetB3p_H": {
        "Type": "CanvasConfig",
        "Title": "H (3+ DeepJet b tags)",
        "Margins": [
            0.1,
            0.1,
            0.1,
            0.1
        ],
        "Coordinates": [],
        "Plots": [
            "Plot_HT500_nMediumDeepJetB3+_nJet4+___H"
        ],
        "Labels": [
            "ee Control/Signal Regions"
        ],
        "Legend": "DefaultLegend",
        "Rebin": null,
        "XPixels": 1200,
        "YPixels": 1000,
        "XAxisTitle": "H (GeV)",
        "YAxisTitle": "Events / bin",
        "Projection": null,
        "DoRatio": true,
        "doLogY": false,
        "DoMountainrange": true
    },
    "Plot_HT500_nMediumDeepJetB3+_nJet4+___HT2M": {
        "Type": "PlotConfig",
        "Title": "DefaultPlotTitle",
        "Xaxis": null,
        "Yaxis": null,
        "Rebin": 5,
        "Files": "2018___Control___3pBnJet4p.root",
        "Projection": null,
        "Unblind": false
    },
    "Canvas_nMediumDeepJetB3p_HT2M": {
        "Type": "CanvasConfig",
        "Title": "H_{T}^{2M} (3+ DeepJet b tags)",
        "Margins": [
            0.1,
            0.1,
            0.1,
            0.1
        ],
        "Coordinates": [],
        "Plots": [
            "Plot_HT500_nMediumDeepJetB3+_nJet4+___HT2M"
        ],
        "Labels": [
            "ee Control/Signal Regions"
        ],
        "Legend": "DefaultLegend",
        "Rebin": null,
        "XPixels": 1200,
        "YPixels": 1000,
        "XAxisTitle": "H_{T}^{2M} (GeV)",
        "YAxisTitle": "Events / bin",
        "Projection": null,
        "DoRatio": true,
        "doLogY": false,
        "DoMountainrange": true
    },
    "Plot_HT500_nMediumDeepJetB3+_nJet4+___H2M": {
        "Type": "PlotConfig",
        "Title": "DefaultPlotTitle",
        "Xaxis": null,
        "Yaxis": null,
        "Rebin": 5,
        "Files": "2018___Control___3pBnJet4p.root",
        "Projection": null,
        "Unblind": false
    },
    "Canvas_nMediumDeepJetB3p_H2M": {
        "Type": "CanvasConfig",
        "Title": "H^{2M} (3+ DeepJet b tags)",
        "Margins": [
            0.1,
            0.1,
            0.1,
            0.1
        ],
        "Coordinates": [],
        "Plots": [
            "Plot_HT500_nMediumDeepJetB3+_nJet4+___H2M"
        ],
        "Labels": [
            "ee Control/Signal Regions"
        ],
        "Legend": "DefaultLegend",
        "Rebin": null,
        "XPixels": 1200,
        "YPixels": 1000,
        "XAxisTitle": "H^{2M} (GeV)",
        "YAxisTitle": "Events / bin",
        "Projection": null,
        "DoRatio": true,
        "doLogY": false,
        "DoMountainrange": true
    },
    "Plot_HT500_nMediumDeepJetB3+_nJet4+___HTb": {
        "Type": "PlotConfig",
        "Title": "DefaultPlotTitle",
        "Xaxis": null,
        "Yaxis": null,
        "Rebin": 5,
        "Files": "2018___Control___3pBnJet4p.root",
        "Projection": null,
        "Unblind": false
    },
    "Canvas_nMediumDeepJetB3p_HTb": {
        "Type": "CanvasConfig",
        "Title": "H_{T}^{b} (3+ DeepJet b tags)",
        "Margins": [
            0.1,
            0.1,
            0.1,
            0.1
        ],
        "Coordinates": [],
        "Plots": [
            "Plot_HT500_nMediumDeepJetB3+_nJet4+___HTb"
        ],
        "Labels": [
            "ee Control/Signal Regions"
        ],
        "Legend": "DefaultLegend",
        "Rebin": null,
        "XPixels": 1200,
        "YPixels": 1000,
        "XAxisTitle": "H_{T}^{b} (GeV)",
        "YAxisTitle": "Events / bin",
        "Projection": null,
        "DoRatio": true,
        "doLogY": false,
        "DoMountainrange": true
    },
    "Plot_HT500_nMediumDeepJetB3+_nJet4+___HTH": {
        "Type": "PlotConfig",
        "Title": "DefaultPlotTitle",
        "Xaxis": null,
        "Yaxis": null,
        "Rebin": 5,
        "Files": "2018___Control___3pBnJet4p.root",
        "Projection": null,
        "Unblind": false
    },
    "Canvas_nMediumDeepJetB3p_HTH": {
        "Type": "CanvasConfig",
        "Title": "HTH (3+ DeepJet b tags)",
        "Margins": [
            0.1,
            0.1,
            0.1,
            0.1
        ],
        "Coordinates": [],
        "Plots": [
            "Plot_HT500_nMediumDeepJetB3+_nJet4+___HTH"
        ],
        "Labels": [
            "ee Control/Signal Regions"
        ],
        "Legend": "DefaultLegend",
        "Rebin": null,
        "XPixels": 1200,
        "YPixels": 1000,
        "XAxisTitle": "HTH (GeV)",
        "YAxisTitle": "Events / bin",
        "Projection": null,
        "DoRatio": true,
        "doLogY": false,
        "DoMountainrange": true
    },
    "Plot_HT500_nMediumDeepJetB3+_nJet4+___HTRat": {
        "Type": "PlotConfig",
        "Title": "DefaultPlotTitle",
        "Xaxis": null,
        "Yaxis": null,
        "Rebin": 5,
        "Files": "2018___Control___3pBnJet4p.root",
        "Projection": null,
        "Unblind": false
    },
    "Canvas_nMediumDeepJetB3p_HTRat": {
        "Type": "CanvasConfig",
        "Title": "HTRat (3+ DeepJet b tags)",
        "Margins": [
            0.1,
            0.1,
            0.1,
            0.1
        ],
        "Coordinates": [],
        "Plots": [
            "Plot_HT500_nMediumDeepJetB3+_nJet4+___HTRat"
        ],
        "Labels": [
            "ee Control/Signal Regions"
        ],
        "Legend": "DefaultLegend",
        "Rebin": null,
        "XPixels": 1200,
        "YPixels": 1000,
        "XAxisTitle": "HTRat (GeV)",
        "YAxisTitle": "Events / bin",
        "Projection": null,
        "DoRatio": true,
        "doLogY": false,
        "DoMountainrange": true
    },
    "Plot_HT500_nMediumDeepJetB3+_nJet4+___dRbb": {
        "Type": "PlotConfig",
        "Title": "DefaultPlotTitle",
        "Xaxis": null,
        "Yaxis": null,
        "Rebin": 5,
        "Files": "2018___Control___3pBnJet4p.root",
        "Projection": null,
        "Unblind": false
    },
    "Canvas_nMediumDeepJetB3p_dRbb": {
        "Type": "CanvasConfig",
        "Title": "#DeltaR_{bb} (3+ DeepJet b tags)",
        "Margins": [
            0.1,
            0.1,
            0.1,
            0.1
        ],
        "Coordinates": [],
        "Plots": [
            "Plot_HT500_nMediumDeepJetB3+_nJet4+___dRbb"
        ],
        "Labels": [
            "ee Control/Signal Regions"
        ],
        "Legend": "DefaultLegend",
        "Rebin": null,
        "XPixels": 1200,
        "YPixels": 1000,
        "XAxisTitle": "#DeltaR_{bb}",
        "YAxisTitle": "Events / bin",
        "Projection": null,
        "DoRatio": true,
        "doLogY": false,
        "DoMountainrange": true
    },
    "Plot_HT500_nMediumDeepJetB3+_nJet4+___dRll": {
        "Type": "PlotConfig",
        "Title": "DefaultPlotTitle",
        "Xaxis": null,
        "Yaxis": null,
        "Rebin": 5,
        "Files": "2018___Control___3pBnJet4p.root",
        "Projection": null,
        "Unblind": false
    },
    "Canvas_nMediumDeepJetB3p_dRll": {
        "Type": "CanvasConfig",
        "Title": "#DeltaR_{#it{ll}} (3+ DeepJet b tags)",
        "Margins": [
            0.1,
            0.1,
            0.1,
            0.1
        ],
        "Coordinates": [],
        "Plots": [
            "Plot_HT500_nMediumDeepJetB3+_nJet4+___dRll"
        ],
        "Labels": [
            "ee Control/Signal Regions"
        ],
        "Legend": "DefaultLegend",
        "Rebin": null,
        "XPixels": 1200,
        "YPixels": 1000,
        "XAxisTitle": "#DeltaR_{#it{ll}}",
        "YAxisTitle": "Events / bin",
        "Projection": null,
        "DoRatio": true,
        "doLogY": false,
        "DoMountainrange": true
    },
    "Plot_HT500_nMediumDeepJetB3+_nJet4+___nLooseFTAElectron": {
        "Type": "PlotConfig",
        "Title": "DefaultPlotTitle",
        "Xaxis": null,
        "Yaxis": null,
        "Rebin": null,
        "Files": "2018___Control___3pBnJet4p.root",
        "Projection": null,
        "Unblind": false
    },
    "Canvas_nMediumDeepJetB3p_nLooseFTAElectron": {
        "Type": "CanvasConfig",
        "Title": "Loose ID Electrons (3+ DeepJet b tags)",
        "Margins": [
            0.1,
            0.1,
            0.1,
            0.1
        ],
        "Coordinates": [],
        "Plots": [
            "Plot_HT500_nMediumDeepJetB3+_nJet4+___nLooseFTAElectron"
        ],
        "Labels": [
            "ee Control/Signal Regions"
        ],
        "Legend": "DefaultLegend",
        "Rebin": null,
        "XPixels": 1200,
        "YPixels": 1000,
        "XAxisTitle": "Loose ID Electrons",
        "YAxisTitle": "Events / bin",
        "Projection": null,
        "DoRatio": true,
        "doLogY": false,
        "DoMountainrange": true
    },
    "Plot_HT500_nMediumDeepJetB3+_nJet4+___nMediumFTAElectron": {
        "Type": "PlotConfig",
        "Title": "DefaultPlotTitle",
        "Xaxis": null,
        "Yaxis": null,
        "Rebin": null,
        "Files": "2018___Control___3pBnJet4p.root",
        "Projection": null,
        "Unblind": false
    },
    "Canvas_nMediumDeepJetB3p_nMediumFTAElectron": {
        "Type": "CanvasConfig",
        "Title": "Medium ID Electrons (3+ DeepJet b tags)",
        "Margins": [
            0.1,
            0.1,
            0.1,
            0.1
        ],
        "Coordinates": [],
        "Plots": [
            "Plot_HT500_nMediumDeepJetB3+_nJet4+___nMediumFTAElectron"
        ],
        "Labels": [
            "ee Control/Signal Regions"
        ],
        "Legend": "DefaultLegend",
        "Rebin": null,
        "XPixels": 1200,
        "YPixels": 1000,
        "XAxisTitle": "Medium ID Electrons",
        "YAxisTitle": "Events / bin",
        "Projection": null,
        "DoRatio": true,
        "doLogY": false,
        "DoMountainrange": true
    },
    "Plot_HT500_nMediumDeepJetB3+_nJet4+___nTightFTAElectron": {
        "Type": "PlotConfig",
        "Title": "DefaultPlotTitle",
        "Xaxis": null,
        "Yaxis": null,
        "Rebin": null,
        "Files": "2018___Control___3pBnJet4p.root",
        "Projection": null,
        "Unblind": false
    },
    "Canvas_nMediumDeepJetB3p_nTightFTAElectron": {
        "Type": "CanvasConfig",
        "Title": "Tight ID Electrons (3+ DeepJet b tags)",
        "Margins": [
            0.1,
            0.1,
            0.1,
            0.1
        ],
        "Coordinates": [],
        "Plots": [
            "Plot_HT500_nMediumDeepJetB3+_nJet4+___nTightFTAElectron"
        ],
        "Labels": [
            "ee Control/Signal Regions"
        ],
        "Legend": "DefaultLegend",
        "Rebin": null,
        "XPixels": 1200,
        "YPixels": 1000,
        "XAxisTitle": "Tight ID Electrons",
        "YAxisTitle": "Events / bin",
        "Projection": null,
        "DoRatio": true,
        "doLogY": false,
        "DoMountainrange": true
    },
    "Plot_HT500_nMediumDeepJetB3+_nJet4+___nLooseFTALepton": {
        "Type": "PlotConfig",
        "Title": "DefaultPlotTitle",
        "Xaxis": null,
        "Yaxis": null,
        "Rebin": null,
        "Files": "2018___Control___3pBnJet4p.root",
        "Projection": null,
        "Unblind": false
    },
    "Canvas_nMediumDeepJetB3p_nLooseFTALepton": {
        "Type": "CanvasConfig",
        "Title": "Loose ID Leptons (3+ DeepJet b tags)",
        "Margins": [
            0.1,
            0.1,
            0.1,
            0.1
        ],
        "Coordinates": [],
        "Plots": [
            "Plot_HT500_nMediumDeepJetB3+_nJet4+___nLooseFTALepton"
        ],
        "Labels": [
            "ee Control/Signal Regions"
        ],
        "Legend": "DefaultLegend",
        "Rebin": null,
        "XPixels": 1200,
        "YPixels": 1000,
        "XAxisTitle": "Loose ID Leptons",
        "YAxisTitle": "Events / bin",
        "Projection": null,
        "DoRatio": true,
        "doLogY": false,
        "DoMountainrange": true
    },
    "Plot_HT500_nMediumDeepJetB3+_nJet4+___nMediumFTALepton": {
        "Type": "PlotConfig",
        "Title": "DefaultPlotTitle",
        "Xaxis": null,
        "Yaxis": null,
        "Rebin": null,
        "Files": "2018___Control___3pBnJet4p.root",
        "Projection": null,
        "Unblind": false
    },
    "Canvas_nMediumDeepJetB3p_nMediumFTALepton": {
        "Type": "CanvasConfig",
        "Title": "Medium ID Leptons (3+ DeepJet b tags)",
        "Margins": [
            0.1,
            0.1,
            0.1,
            0.1
        ],
        "Coordinates": [],
        "Plots": [
            "Plot_HT500_nMediumDeepJetB3+_nJet4+___nMediumFTALepton"
        ],
        "Labels": [
            "ee Control/Signal Regions"
        ],
        "Legend": "DefaultLegend",
        "Rebin": null,
        "XPixels": 1200,
        "YPixels": 1000,
        "XAxisTitle": "Medium ID Leptons",
        "YAxisTitle": "Events / bin",
        "Projection": null,
        "DoRatio": true,
        "doLogY": false,
        "DoMountainrange": true
    },
    "Plot_HT500_nMediumDeepJetB3+_nJet4+___nTightFTALepton": {
        "Type": "PlotConfig",
        "Title": "DefaultPlotTitle",
        "Xaxis": null,
        "Yaxis": null,
        "Rebin": null,
        "Files": "2018___Control___3pBnJet4p.root",
        "Projection": null,
        "Unblind": false
    },
    "Canvas_nMediumDeepJetB3p_nTightFTALepton": {
        "Type": "CanvasConfig",
        "Title": "Tight ID Leptons (3+ DeepJet b tags)",
        "Margins": [
            0.1,
            0.1,
            0.1,
            0.1
        ],
        "Coordinates": [],
        "Plots": [
            "Plot_HT500_nMediumDeepJetB3+_nJet4+___nTightFTALepton"
        ],
        "Labels": [
            "ee Control/Signal Regions"
        ],
        "Legend": "DefaultLegend",
        "Rebin": null,
        "XPixels": 1200,
        "YPixels": 1000,
        "XAxisTitle": "Tight ID Leptons",
        "YAxisTitle": "Events / bin",
        "Projection": null,
        "DoRatio": true,
        "doLogY": false,
        "DoMountainrange": true
    },
    "DefaultPlot": {
        "Type": "DefaultPlot",
        "Title": "DefaultPlotTitle",
        "Rebin": null,
        "Files": null,
        "Unblind": false,
        "RatioYMin": 0.0,
        "RatioYMax": 2.0
    },
    "DefaultCanvas": {
        "Type": "DefaultCanvas",
        "Title": "DefaultCanvasTitle",
        "Margins": [
            0.1,
            0.1,
            0.1,
            0.1
        ],
        "Plots": null,
        "XPixels": 800,
        "YPixels": 800,
        "DoRatio": false,
        "DoMountainrange": false
    }
}
