{
    "Plot_HT500_nMediumDeepJetB2_nJet4+___nLooseFTAElectron": {
        "Type": "PlotConfig",
        "Title": "DefaultPlotTitle",
        "Xaxis": null,
        "Yaxis": null,
        "Rebin": null,
        "Files": "RunII___Control___2BnJet4p.root",
        "Projection": null,
        "Unblind": false
    },
    "Canvas_nMediumDeepJetB2p_nLooseFTAElectron": {
        "Type": "CanvasConfig",
        "Title": "Loose ID Electrons (2 DeepJet b tags)",
        "Margins": [
            0.1,
            0.1,
            0.1,
            0.1
        ],
        "Coordinates": [],
        "Plots": [
            "Plot_HT500_nMediumDeepJetB2_nJet4+___nLooseFTAElectron"
        ],
        "Labels": [
            "#font[33]{ll} "
        ],
        "Legend": "DefaultLegend",
        "Rebin": null,
        "XPixels": 1200,
        "YPixels": 1000,
        "XAxisTitle": "Loose ID Electrons",
        "YAxisTitle": "Events / bin",
        "Projection": null,
        "DoRatio": true,
        "doLogY": false,
        "DoMountainrange": true
    },
    "Plot_HT500_nMediumDeepJetB2_nJet4+___nMediumFTAElectron": {
        "Type": "PlotConfig",
        "Title": "DefaultPlotTitle",
        "Xaxis": null,
        "Yaxis": null,
        "Rebin": null,
        "Files": "RunII___Control___2BnJet4p.root",
        "Projection": null,
        "Unblind": false
    },
    "Canvas_nMediumDeepJetB2p_nMediumFTAElectron": {
        "Type": "CanvasConfig",
        "Title": "Medium ID Electrons (2 DeepJet b tags)",
        "Margins": [
            0.1,
            0.1,
            0.1,
            0.1
        ],
        "Coordinates": [],
        "Plots": [
            "Plot_HT500_nMediumDeepJetB2_nJet4+___nMediumFTAElectron"
        ],
        "Labels": [
            "#font[33]{ll} "
        ],
        "Legend": "DefaultLegend",
        "Rebin": null,
        "XPixels": 1200,
        "YPixels": 1000,
        "XAxisTitle": "Medium ID Electrons",
        "YAxisTitle": "Events / bin",
        "Projection": null,
        "DoRatio": true,
        "doLogY": false,
        "DoMountainrange": true
    },
    "Plot_HT500_nMediumDeepJetB2_nJet4+___nTightFTAElectron": {
        "Type": "PlotConfig",
        "Title": "DefaultPlotTitle",
        "Xaxis": null,
        "Yaxis": null,
        "Rebin": null,
        "Files": "RunII___Control___2BnJet4p.root",
        "Projection": null,
        "Unblind": false
    },
    "Canvas_nMediumDeepJetB2p_nTightFTAElectron": {
        "Type": "CanvasConfig",
        "Title": "Tight ID Electrons (2 DeepJet b tags)",
        "Margins": [
            0.1,
            0.1,
            0.1,
            0.1
        ],
        "Coordinates": [],
        "Plots": [
            "Plot_HT500_nMediumDeepJetB2_nJet4+___nTightFTAElectron"
        ],
        "Labels": [
            "#font[33]{ll} "
        ],
        "Legend": "DefaultLegend",
        "Rebin": null,
        "XPixels": 1200,
        "YPixels": 1000,
        "XAxisTitle": "Tight ID Electrons",
        "YAxisTitle": "Events / bin",
        "Projection": null,
        "DoRatio": true,
        "doLogY": false,
        "DoMountainrange": true
    },
    "Plot_HT500_nMediumDeepJetB2_nJet4+___nLooseFTALepton": {
        "Type": "PlotConfig",
        "Title": "DefaultPlotTitle",
        "Xaxis": null,
        "Yaxis": null,
        "Rebin": null,
        "Files": "RunII___Control___2BnJet4p.root",
        "Projection": null,
        "Unblind": false
    },
    "Canvas_nMediumDeepJetB2p_nLooseFTALepton": {
        "Type": "CanvasConfig",
        "Title": "Loose ID Leptons (2 DeepJet b tags)",
        "Margins": [
            0.1,
            0.1,
            0.1,
            0.1
        ],
        "Coordinates": [],
        "Plots": [
            "Plot_HT500_nMediumDeepJetB2_nJet4+___nLooseFTALepton"
        ],
        "Labels": [
            "#font[33]{ll} "
        ],
        "Legend": "DefaultLegend",
        "Rebin": null,
        "XPixels": 1200,
        "YPixels": 1000,
        "XAxisTitle": "Loose ID Leptons",
        "YAxisTitle": "Events / bin",
        "Projection": null,
        "DoRatio": true,
        "doLogY": false,
        "DoMountainrange": true
    },
    "Plot_HT500_nMediumDeepJetB2_nJet4+___nMediumFTALepton": {
        "Type": "PlotConfig",
        "Title": "DefaultPlotTitle",
        "Xaxis": null,
        "Yaxis": null,
        "Rebin": null,
        "Files": "RunII___Control___2BnJet4p.root",
        "Projection": null,
        "Unblind": false
    },
    "Canvas_nMediumDeepJetB2p_nMediumFTALepton": {
        "Type": "CanvasConfig",
        "Title": "Medium ID Leptons (2 DeepJet b tags)",
        "Margins": [
            0.1,
            0.1,
            0.1,
            0.1
        ],
        "Coordinates": [],
        "Plots": [
            "Plot_HT500_nMediumDeepJetB2_nJet4+___nMediumFTALepton"
        ],
        "Labels": [
            "#font[33]{ll} "
        ],
        "Legend": "DefaultLegend",
        "Rebin": null,
        "XPixels": 1200,
        "YPixels": 1000,
        "XAxisTitle": "Medium ID Leptons",
        "YAxisTitle": "Events / bin",
        "Projection": null,
        "DoRatio": true,
        "doLogY": false,
        "DoMountainrange": true
    },
    "Plot_HT500_nMediumDeepJetB2_nJet4+___nTightFTALepton": {
        "Type": "PlotConfig",
        "Title": "DefaultPlotTitle",
        "Xaxis": null,
        "Yaxis": null,
        "Rebin": null,
        "Files": "RunII___Control___2BnJet4p.root",
        "Projection": null,
        "Unblind": false
    },
    "Canvas_nMediumDeepJetB2p_nTightFTALepton": {
        "Type": "CanvasConfig",
        "Title": "Tight ID Leptons (2 DeepJet b tags)",
        "Margins": [
            0.1,
            0.1,
            0.1,
            0.1
        ],
        "Coordinates": [],
        "Plots": [
            "Plot_HT500_nMediumDeepJetB2_nJet4+___nTightFTALepton"
        ],
        "Labels": [
            "#font[33]{ll} "
        ],
        "Legend": "DefaultLegend",
        "Rebin": null,
        "XPixels": 1200,
        "YPixels": 1000,
        "XAxisTitle": "Tight ID Leptons",
        "YAxisTitle": "Events / bin",
        "Projection": null,
        "DoRatio": true,
        "doLogY": false,
        "DoMountainrange": true
    },
    "DefaultPlot": {
        "Type": "DefaultPlot",
        "Title": "DefaultPlotTitle",
        "Rebin": null,
        "Files": null,
        "Unblind": false,
        "RatioYMin": 0.0,
        "RatioYMax": 2.0
    },
    "DefaultCanvas": {
        "Type": "DefaultCanvas",
        "Title": "DefaultCanvasTitle",
        "Margins": [
            0.1,
            0.1,
            0.1,
            0.1
        ],
        "Plots": null,
        "XPixels": 800,
        "YPixels": 800,
        "DoRatio": false,
        "DoMountainrange": false
    }
}
