{
    "Plot_HT500_nMediumDeepJetB3+_nJet4+___Jet3_pt": {
        "Type": "PlotConfig",
        "Title": "DefaultPlotTitle",
        "Xaxis": null,
        "Yaxis": null,
        "Rebin": 5,
        "Files": "RunII___Control___3pBnJet4p.root",
        "Projection": null,
        "Unblind": false
    },
    "Canvas_nMediumDeepJetB3p_Jet3_pt": {
        "Type": "CanvasConfig",
        "Title": "3rd Jet pt (3+ DeepJet b tags)",
        "Margins": [
            0.1,
            0.1,
            0.1,
            0.1
        ],
        "Coordinates": [],
        "Plots": [
            "Plot_HT500_nMediumDeepJetB3+_nJet4+___Jet3_pt"
        ],
        "Labels": [
            "#font[33]{ll} "
        ],
        "Legend": "DefaultLegend",
        "Rebin": null,
        "XPixels": 1200,
        "YPixels": 1000,
        "XAxisTitle": "3rd Jet p_{T} (GeV)",
        "YAxisTitle": "Events / bin",
        "Projection": null,
        "DoRatio": true,
        "doLogY": false,
        "DoMountainrange": true
    },
    "Plot_HT500_nMediumDeepJetB3+_nJet4+___Jet3_eta": {
        "Type": "PlotConfig",
        "Title": "DefaultPlotTitle",
        "Xaxis": null,
        "Yaxis": null,
        "Rebin": 5,
        "Files": "RunII___Control___3pBnJet4p.root",
        "Projection": null,
        "Unblind": false
    },
    "Canvas_nMediumDeepJetB3p_Jet3_eta": {
        "Type": "CanvasConfig",
        "Title": "3rd Jet #eta (3+ DeepJet b tags)",
        "Margins": [
            0.1,
            0.1,
            0.1,
            0.1
        ],
        "Coordinates": [],
        "Plots": [
            "Plot_HT500_nMediumDeepJetB3+_nJet4+___Jet3_eta"
        ],
        "Labels": [
            "#font[33]{ll} "
        ],
        "Legend": "DefaultLegend",
        "Rebin": null,
        "XPixels": 1200,
        "YPixels": 1000,
        "XAxisTitle": "3rd Jet #eta",
        "YAxisTitle": "Events / bin",
        "Projection": null,
        "DoRatio": true,
        "doLogY": false,
        "DoMountainrange": true
    },
    "Plot_HT500_nMediumDeepJetB3+_nJet4+___Jet3_DeepJetB": {
        "Type": "PlotConfig",
        "Title": "DefaultPlotTitle",
        "Xaxis": null,
        "Yaxis": null,
        "Rebin": 5,
        "Files": "RunII___Control___3pBnJet4p.root",
        "Projection": null,
        "Unblind": false
    },
    "Canvas_nMediumDeepJetB3p_Jet3_DeepJetB": {
        "Type": "CanvasConfig",
        "Title": "3rd p_{T} Jet DeepJet Disriminant (3+ DeepJet b tags)",
        "Margins": [
            0.1,
            0.1,
            0.1,
            0.1
        ],
        "Coordinates": [],
        "Plots": [
            "Plot_HT500_nMediumDeepJetB3+_nJet4+___Jet3_DeepJetB"
        ],
        "Labels": [
            "#font[33]{ll} "
        ],
        "Legend": "DefaultLegend",
        "Rebin": null,
        "XPixels": 1200,
        "YPixels": 1000,
        "XAxisTitle": "3rd p_{T} Jet DeepJet Disriminant",
        "YAxisTitle": "Events / bin",
        "Projection": null,
        "DoRatio": true,
        "doLogY": false,
        "DoMountainrange": true
    },
    "Plot_HT500_nMediumDeepJetB3+_nJet4+___Jet3_DeepJetB_sortedjet": {
        "Type": "PlotConfig",
        "Title": "DefaultPlotTitle",
        "Xaxis": null,
        "Yaxis": null,
        "Rebin": 5,
        "Files": "RunII___Control___3pBnJet4p.root",
        "Projection": null,
        "Unblind": false
    },
    "Canvas_nMediumDeepJetB3p_Jet3_DeepJetB_sortedjet": {
        "Type": "CanvasConfig",
        "Title": "3rd b tagged Jet discriminant (3+ DeepJet b tags)",
        "Margins": [
            0.1,
            0.1,
            0.1,
            0.1
        ],
        "Coordinates": [],
        "Plots": [
            "Plot_HT500_nMediumDeepJetB3+_nJet4+___Jet3_DeepJetB_sortedjet"
        ],
        "Labels": [
            "#font[33]{ll} "
        ],
        "Legend": "DefaultLegend",
	"SetRangeUser": [0.25, 1.0],
        "Rebin": null,
        "XPixels": 1200,
        "YPixels": 1000,
        "XAxisTitle": "3rd Jet DeepJet Discriminator",
        "YAxisTitle": "Events / bin",
        "Projection": null,
        "DoRatio": true,
        "doLogY": false,
        "DoMountainrange": true
    },
    "DefaultPlot": {
        "Type": "DefaultPlot",
        "Title": "DefaultPlotTitle",
        "Rebin": null,
        "Files": null,
        "Unblind": false,
        "RatioYMin": 0.0,
        "RatioYMax": 2.0
    },
    "DefaultCanvas": {
        "Type": "DefaultCanvas",
        "Title": "DefaultCanvasTitle",
        "Margins": [
            0.1,
            0.1,
            0.1,
            0.1
        ],
        "Plots": null,
        "XPixels": 800,
        "YPixels": 800,
        "DoRatio": false,
        "DoMountainrange": false
    }
}
