{
    "Plot_HT500_nMediumDeepJetB3+_nJet4+___fixedGridRhoFastjetAll": {
        "Type": "PlotConfig",
        "Title": "DefaultPlotTitle",
        "Xaxis": null,
        "Yaxis": null,
        "Rebin": null,
        "Files": "2017___Pileup___3pBnJet4p.root",
        "Projection": null,
        "Unblind": false
    },
    "Canvas_nMediumDeepJetB2p_fixedGridRhoFastjetAll": {
        "Type": "CanvasConfig",
        "Title": "#rho_{All}^{fixedGridFastJet} (3+ DeepJet b tags)",
        "Margins": [
            0.1,
            0.1,
            0.1,
            0.1
        ],
        "Coordinates": [],
        "Plots": [
            "Plot_HT500_nMediumDeepJetB3+_nJet4+___fixedGridRhoFastjetAll"
        ],
        "Labels": [
            "ee Control/Signal Regions"
        ],
        "Legend": "DefaultLegend",
        "Rebin": null,
        "XPixels": 1200,
        "YPixels": 1000,
        "XAxisTitle": "#rho_{All}^{fixedGridFastJet} (all PF Candidates; JECs)",
        "YAxisTitle": "Events / bin",
        "Projection": null,
        "DoRatio": true,
        "doLogY": false,
        "DoMountainrange": true
    },
    "Plot_HT500_nMediumDeepJetB3+_nJet4+___fixedGridRhoFastjetCentral": {
        "Type": "PlotConfig",
        "Title": "DefaultPlotTitle",
        "Xaxis": null,
        "Yaxis": null,
        "Rebin": null,
        "Files": "2017___Pileup___3pBnJet4p.root",
        "Projection": null,
        "Unblind": false
    },
    "Canvas_nMediumDeepJetB2p_fixedGridRhoFastjetCentral": {
        "Type": "CanvasConfig",
        "Title": "#rho_{Central}^{fixedGridFastJet} (3+ DeepJet b tags)",
        "Margins": [
            0.1,
            0.1,
            0.1,
            0.1
        ],
        "Coordinates": [],
        "Plots": [
            "Plot_HT500_nMediumDeepJetB3+_nJet4+___fixedGridRhoFastjetCentral"
        ],
        "Labels": [
            "ee Control/Signal Regions"
        ],
        "Legend": "DefaultLegend",
        "Rebin": null,
        "XPixels": 1200,
        "YPixels": 1000,
        "XAxisTitle": "#rho_{Central}^{fixedGridFastJet} (all central region PF Candidates; JECs)",
        "YAxisTitle": "Events / bin",
        "Projection": null,
        "DoRatio": true,
        "doLogY": false,
        "DoMountainrange": true
    },
    "Plot_HT500_nMediumDeepJetB3+_nJet4+___fixedGridRhoFastjetCentralCalo": {
        "Type": "PlotConfig",
        "Title": "DefaultPlotTitle",
        "Xaxis": null,
        "Yaxis": null,
        "Rebin": null,
        "Files": "2017___Pileup___3pBnJet4p.root",
        "Projection": null,
        "Unblind": false
    },
    "Canvas_nMediumDeepJetB2p_fixedGridRhoFastjetCentralCalo": {
        "Type": "CanvasConfig",
        "Title": "#rho_{CentralCalo}^{fixedGridFastJet} (3+ DeepJet b tags)",
        "Margins": [
            0.1,
            0.1,
            0.1,
            0.1
        ],
        "Coordinates": [],
        "Plots": [
            "Plot_HT500_nMediumDeepJetB3+_nJet4+___fixedGridRhoFastjetCentralCalo"
        ],
        "Labels": [
            "ee Control/Signal Regions"
        ],
        "Legend": "DefaultLegend",
        "Rebin": null,
        "XPixels": 1200,
        "YPixels": 1000,
        "XAxisTitle": "#rho_{CentralCalo}^{fixedGridFastJet} (calo towers with |#eta| < 2.5; e#gamma iso)",
        "YAxisTitle": "Events / bin",
        "Projection": null,
        "DoRatio": true,
        "doLogY": false,
        "DoMountainrange": true
    },
    "Plot_HT500_nMediumDeepJetB3+_nJet4+___fixedGridRhoFastjetCentralChargedPileUp": {
        "Type": "PlotConfig",
        "Title": "DefaultPlotTitle",
        "Xaxis": null,
        "Yaxis": null,
        "Rebin": null,
        "Files": "2017___Pileup___3pBnJet4p.root",
        "Projection": null,
        "Unblind": false
    },
    "Canvas_nMediumDeepJetB2p_fixedGridRhoFastjetCentralChargedPileUp": {
        "Type": "CanvasConfig",
        "Title": "#rho_{CentralChargedPileUp}^{fixedGridFastJet} (3+ DeepJet b tags)",
        "Margins": [
            0.1,
            0.1,
            0.1,
            0.1
        ],
        "Coordinates": [],
        "Plots": [
            "Plot_HT500_nMediumDeepJetB3+_nJet4+___fixedGridRhoFastjetCentralChargedPileUp"
        ],
        "Labels": [
            "ee Control/Signal Regions"
        ],
        "Legend": "DefaultLegend",
        "Rebin": null,
        "XPixels": 1200,
        "YPixels": 1000,
        "XAxisTitle": "#rho_{CentralChargedPileUp}^{fixedGridFastJet} (central region charged PF Candidates;JECs)",
        "YAxisTitle": "Events / bin",
        "Projection": null,
        "DoRatio": true,
        "doLogY": false,
        "DoMountainrange": true
    },
    "Plot_HT500_nMediumDeepJetB3+_nJet4+___fixedGridRhoFastjetCentralNeutral": {
        "Type": "PlotConfig",
        "Title": "DefaultPlotTitle",
        "Xaxis": null,
        "Yaxis": null,
        "Rebin": null,
        "Files": "2017___Pileup___3pBnJet4p.root",
        "Projection": null,
        "Unblind": false
    },
    "Canvas_nMediumDeepJetB2p_fixedGridRhoFastjetCentralNeutral": {
        "Type": "CanvasConfig",
        "Title": "#rho_{CentralNeutral}^{fixedGridFastJet} (3+ DeepJet b tags)",
        "Margins": [
            0.1,
            0.1,
            0.1,
            0.1
        ],
        "Coordinates": [],
        "Plots": [
            "Plot_HT500_nMediumDeepJetB3+_nJet4+___fixedGridRhoFastjetCentralNeutral"
        ],
        "Labels": [
            "ee Control/Signal Regions"
        ],
        "Legend": "DefaultLegend",
        "Rebin": null,
        "XPixels": 1200,
        "YPixels": 1000,
        "XAxisTitle": "#rho_{CentralNeutral}^{fixedGridFastJet} (neutral PF Candidates with |#eta| < 2.5; lepton isolations)",
        "YAxisTitle": "Events / bin",
        "Projection": null,
        "DoRatio": true,
        "doLogY": false,
        "DoMountainrange": true
    },
    "Plot_HT500_nMediumDeepJetB3+_nJet4+___FTAJet_chEmEF": {
        "Type": "PlotConfig",
        "Title": "DefaultPlotTitle",
        "Xaxis": null,
        "Yaxis": null,
        "Rebin": null,
        "Files": "2017___Pileup___3pBnJet4p.root",
        "Projection": null,
        "Unblind": false
    },
    "Canvas_nMediumDeepJetB2p_FTAJet_chEmEF": {
        "Type": "CanvasConfig",
        "Title": "Charged EM energy fraction (3+ DeepJet b tags)",
        "Margins": [
            0.1,
            0.1,
            0.1,
            0.1
        ],
        "Coordinates": [],
        "Plots": [
            "Plot_HT500_nMediumDeepJetB3+_nJet4+___FTAJet_chEmEF"
        ],
        "Labels": [
            "ee Control/Signal Regions"
        ],
        "Legend": "DefaultLegend",
        "Rebin": null,
        "XPixels": 1200,
        "YPixels": 1000,
        "XAxisTitle": "Charged EM energy fraction",
        "YAxisTitle": "Events / bin",
        "Projection": null,
        "DoRatio": true,
        "doLogY": false,
        "DoMountainrange": true
    },
    "Plot_HT500_nMediumDeepJetB3+_nJet4+___FTAJet_chHEF": {
        "Type": "PlotConfig",
        "Title": "DefaultPlotTitle",
        "Xaxis": null,
        "Yaxis": null,
        "Rebin": null,
        "Files": "2017___Pileup___3pBnJet4p.root",
        "Projection": null,
        "Unblind": false
    },
    "Canvas_nMediumDeepJetB2p_FTAJet_chHEF": {
        "Type": "CanvasConfig",
        "Title": "Charged Hadron energy fraction (3+ DeepJet b tags)",
        "Margins": [
            0.1,
            0.1,
            0.1,
            0.1
        ],
        "Coordinates": [],
        "Plots": [
            "Plot_HT500_nMediumDeepJetB3+_nJet4+___FTAJet_chHEF"
        ],
        "Labels": [
            "ee Control/Signal Regions"
        ],
        "Legend": "DefaultLegend",
        "Rebin": null,
        "XPixels": 1200,
        "YPixels": 1000,
        "XAxisTitle": "Charged Hadron energy fraction",
        "YAxisTitle": "Events / bin",
        "Projection": null,
        "DoRatio": true,
        "doLogY": false,
        "DoMountainrange": true
    },
    "Plot_HT500_nMediumDeepJetB3+_nJet4+___FTAJet_neEmEF": {
        "Type": "PlotConfig",
        "Title": "DefaultPlotTitle",
        "Xaxis": null,
        "Yaxis": null,
        "Rebin": null,
        "Files": "2017___Pileup___3pBnJet4p.root",
        "Projection": null,
        "Unblind": false
    },
    "Canvas_nMediumDeepJetB2p_FTAJet_neEmEF": {
        "Type": "CanvasConfig",
        "Title": "Neutral EM energy fraction (3+ DeepJet b tags)",
        "Margins": [
            0.1,
            0.1,
            0.1,
            0.1
        ],
        "Coordinates": [],
        "Plots": [
            "Plot_HT500_nMediumDeepJetB3+_nJet4+___FTAJet_neEmEF"
        ],
        "Labels": [
            "ee Control/Signal Regions"
        ],
        "Legend": "DefaultLegend",
        "Rebin": null,
        "XPixels": 1200,
        "YPixels": 1000,
        "XAxisTitle": "Neutral EM energy fraction",
        "YAxisTitle": "Events / bin",
        "Projection": null,
        "DoRatio": true,
        "doLogY": false,
        "DoMountainrange": true
    },
    "Plot_HT500_nMediumDeepJetB3+_nJet4+___FTAJet_neHEF": {
        "Type": "PlotConfig",
        "Title": "DefaultPlotTitle",
        "Xaxis": null,
        "Yaxis": null,
        "Rebin": null,
        "Files": "2017___Pileup___3pBnJet4p.root",
        "Projection": null,
        "Unblind": false
    },
    "Canvas_nMediumDeepJetB2p_FTAJet_neHEF": {
        "Type": "CanvasConfig",
        "Title": "Neutral Hadron energy fraction (3+ DeepJet b tags)",
        "Margins": [
            0.1,
            0.1,
            0.1,
            0.1
        ],
        "Coordinates": [],
        "Plots": [
            "Plot_HT500_nMediumDeepJetB3+_nJet4+___FTAJet_neHEF"
        ],
        "Labels": [
            "ee Control/Signal Regions"
        ],
        "Legend": "DefaultLegend",
        "Rebin": null,
        "XPixels": 1200,
        "YPixels": 1000,
        "XAxisTitle": "Neutral Hadron energy fraction",
        "YAxisTitle": "Events / bin",
        "Projection": null,
        "DoRatio": true,
        "doLogY": false,
        "DoMountainrange": true
    },
    "Plot_HT500_nMediumDeepJetB3+_nJet4+___FTAJet_muEF": {
        "Type": "PlotConfig",
        "Title": "DefaultPlotTitle",
        "Xaxis": null,
        "Yaxis": null,
        "Rebin": null,
        "Files": "2017___Pileup___3pBnJet4p.root",
        "Projection": null,
        "Unblind": false
    },
    "Canvas_nMediumDeepJetB2p_FTAJet_muEF": {
        "Type": "CanvasConfig",
        "Title": "Muon Hadron energy fraction (3+ DeepJet b tags)",
        "Margins": [
            0.1,
            0.1,
            0.1,
            0.1
        ],
        "Coordinates": [],
        "Plots": [
            "Plot_HT500_nMediumDeepJetB3+_nJet4+___FTAJet_muEF"
        ],
        "Labels": [
            "ee Control/Signal Regions"
        ],
        "Legend": "DefaultLegend",
        "Rebin": null,
        "XPixels": 1200,
        "YPixels": 1000,
        "XAxisTitle": "Muon Hadron energy fraction",
        "YAxisTitle": "Events / bin",
        "Projection": null,
        "DoRatio": true,
        "doLogY": false,
        "DoMountainrange": true
    },
    "Plot_HT500_nMediumDeepJetB3+_nJet4+___FTAJet_nConstituents": {
        "Type": "PlotConfig",
        "Title": "DefaultPlotTitle",
        "Xaxis": null,
        "Yaxis": null,
        "Rebin": null,
        "Files": "2017___Pileup___3pBnJet4p.root",
        "Projection": null,
        "Unblind": false
    },
    "Canvas_nMediumDeepJetB2p_FTAJet_nConstituents": {
        "Type": "CanvasConfig",
        "Title": "Number of Jet Constituents (3+ DeepJet b tags)",
        "Margins": [
            0.1,
            0.1,
            0.1,
            0.1
        ],
        "Coordinates": [],
        "Plots": [
            "Plot_HT500_nMediumDeepJetB3+_nJet4+___FTAJet_nConstituents"
        ],
        "Labels": [
            "ee Control/Signal Regions"
        ],
        "Legend": "DefaultLegend",
        "Rebin": null,
        "XPixels": 1200,
        "YPixels": 1000,
        "XAxisTitle": "Number of Jet Constituents",
        "YAxisTitle": "Events / bin",
        "Projection": null,
        "DoRatio": true,
        "doLogY": false,
        "DoMountainrange": true
    },
    "Plot_HT500_nMediumDeepJetB3+_nJet4+___FTAJet_puIdDisc": {
        "Type": "PlotConfig",
        "Title": "DefaultPlotTitle",
        "Xaxis": null,
        "Yaxis": null,
        "Rebin": null,
        "Files": "2017___Pileup___3pBnJet4p.root",
        "Projection": null,
        "Unblind": false
    },
    "Canvas_nMediumDeepJetB2p_FTAJet_puIdDisc": {
        "Type": "CanvasConfig",
        "Title": "Jet PU ID Discriminant (102X) (3+ DeepJet b tags)",
        "Margins": [
            0.1,
            0.1,
            0.1,
            0.1
        ],
        "Coordinates": [],
        "Plots": [
            "Plot_HT500_nMediumDeepJetB3+_nJet4+___FTAJet_puIdDisc"
        ],
        "Labels": [
            "ee Control/Signal Regions"
        ],
        "Legend": "DefaultLegend",
        "Rebin": null,
        "XPixels": 1200,
        "YPixels": 1000,
        "XAxisTitle": "Jet PU ID Discriminant (102X)",
        "YAxisTitle": "Events / bin",
        "Projection": null,
        "DoRatio": true,
        "doLogY": false,
        "DoMountainrange": true
    },
    "Plot_HT500_nMediumDeepJetB3+_nJet4+___FTAJet_chFPV0EF": {
        "Type": "PlotConfig",
        "Title": "DefaultPlotTitle",
        "Xaxis": null,
        "Yaxis": null,
        "Rebin": null,
        "Files": "2017___Pileup___3pBnJet4p.root",
        "Projection": null,
        "Unblind": false
    },
    "Canvas_nMediumDeepJetB2p_FTAJet_chFPV0EF": {
        "Type": "CanvasConfig",
        "Title": "charged fromPV==0 Energy Fraction (3+ DeepJet b tags)",
        "Margins": [
            0.1,
            0.1,
            0.1,
            0.1
        ],
        "Coordinates": [],
        "Plots": [
            "Plot_HT500_nMediumDeepJetB3+_nJet4+___FTAJet_chFPV0EF"
        ],
        "Labels": [
            "ee Control/Signal Regions"
        ],
        "Legend": "DefaultLegend",
        "Rebin": null,
        "XPixels": 1200,
        "YPixels": 1000,
        "XAxisTitle": "charged fromPV==0 Energy Fraction (energy excluded from CHS jets) (#Beta*)",
        "YAxisTitle": "Events / bin",
        "Projection": null,
        "DoRatio": true,
        "doLogY": false,
        "DoMountainrange": true
    },
    "Plot_HT500_nMediumDeepJetB3+_nJet4+___FTAJet_chFPV1EF": {
        "Type": "PlotConfig",
        "Title": "DefaultPlotTitle",
        "Xaxis": null,
        "Yaxis": null,
        "Rebin": null,
        "Files": "2017___Pileup___3pBnJet4p.root",
        "Projection": null,
        "Unblind": false
    },
    "Canvas_nMediumDeepJetB2p_FTAJet_chFPV1EF": {
        "Type": "CanvasConfig",
        "Title": "charged fromPV==1 Energy Fraction (3+ DeepJet b tags)",
        "Margins": [
            0.1,
            0.1,
            0.1,
            0.1
        ],
        "Coordinates": [],
        "Plots": [
            "Plot_HT500_nMediumDeepJetB3+_nJet4+___FTAJet_chFPV1EF"
        ],
        "Labels": [
            "ee Control/Signal Regions"
        ],
        "Legend": "DefaultLegend",
        "Rebin": null,
        "XPixels": 1200,
        "YPixels": 1000,
        "XAxisTitle": "charged fromPV==1 Energy Fraction",
        "YAxisTitle": "Events / bin",
        "Projection": null,
        "DoRatio": true,
        "doLogY": false,
        "DoMountainrange": true
    },
    "Plot_HT500_nMediumDeepJetB3+_nJet4+___FTAJet_chFPV2EF": {
        "Type": "PlotConfig",
        "Title": "DefaultPlotTitle",
        "Xaxis": null,
        "Yaxis": null,
        "Rebin": null,
        "Files": "2017___Pileup___3pBnJet4p.root",
        "Projection": null,
        "Unblind": false
    },
    "Canvas_nMediumDeepJetB2p_FTAJet_chFPV2EF": {
        "Type": "CanvasConfig",
        "Title": "charged fromPV==2 Energy Fraction (3+ DeepJet b tags)",
        "Margins": [
            0.1,
            0.1,
            0.1,
            0.1
        ],
        "Coordinates": [],
        "Plots": [
            "Plot_HT500_nMediumDeepJetB3+_nJet4+___FTAJet_chFPV2EF"
        ],
        "Labels": [
            "ee Control/Signal Regions"
        ],
        "Legend": "DefaultLegend",
        "Rebin": null,
        "XPixels": 1200,
        "YPixels": 1000,
        "XAxisTitle": "charged fromPV==2 Energy Fraction",
        "YAxisTitle": "Events / bin",
        "Projection": null,
        "DoRatio": true,
        "doLogY": false,
        "DoMountainrange": true
    },
    "Plot_HT500_nMediumDeepJetB3+_nJet4+___FTAJet_chFPV3EF": {
        "Type": "PlotConfig",
        "Title": "DefaultPlotTitle",
        "Xaxis": null,
        "Yaxis": null,
        "Rebin": null,
        "Files": "2017___Pileup___3pBnJet4p.root",
        "Projection": null,
        "Unblind": false
    },
    "Canvas_nMediumDeepJetB2p_FTAJet_chFPV3EF": {
        "Type": "CanvasConfig",
        "Title": "charged fromPV==3 Energy Fraction (3+ DeepJet b tags)",
        "Margins": [
            0.1,
            0.1,
            0.1,
            0.1
        ],
        "Coordinates": [],
        "Plots": [
            "Plot_HT500_nMediumDeepJetB3+_nJet4+___FTAJet_chFPV3EF"
        ],
        "Labels": [
            "ee Control/Signal Regions"
        ],
        "Legend": "DefaultLegend",
        "Rebin": null,
        "XPixels": 1200,
        "YPixels": 1000,
        "XAxisTitle": "charged fromPV==3 Energy Fraction",
        "YAxisTitle": "Events / bin",
        "Projection": null,
        "DoRatio": true,
        "doLogY": false,
        "DoMountainrange": true
    },
    "DefaultPlot": {
        "Type": "DefaultPlot",
        "Title": "DefaultPlotTitle",
        "Rebin": null,
        "Files": null,
        "Unblind": false,
        "RatioYMin": 0.0,
        "RatioYMax": 2.0
    },
    "DefaultCanvas": {
        "Type": "DefaultCanvas",
        "Title": "DefaultCanvasTitle",
        "Margins": [
            0.1,
            0.1,
            0.1,
            0.1
        ],
        "Plots": null,
        "XPixels": 800,
        "YPixels": 800,
        "DoRatio": false,
        "DoMountainrange": false
    }
}
